start testing
accuracy:9.8% (980/10000)
    *     0     1     2     3     4     5     6     7     8     9 
    0   980  1135  1032  1010   982   892   958  1028   974  1009 
    1     0     0     0     0     0     0     0     0     0     0 
    2     0     0     0     0     0     0     0     0     0     0 
    3     0     0     0     0     0     0     0     0     0     0 
    4     0     0     0     0     0     0     0     0     0     0 
    5     0     0     0     0     0     0     0     0     0     0 
    6     0     0     0     0     0     0     0     0     0     0 
    7     0     0     0     0     0     0     0     0     0     0 
    8     0     0     0     0     0     0     0     0     0     0 
    9     0     0     0     0     0     0     0     0     0     0 
end testing
